ESS 330 Project Proposal
…
print(site_tables)

<list_of<
  tbl_df<
    PIT_NAME: character
    DNS_AVG : double
    TOP     : character
  >
>[16]>
$`RBSP01         `
# A tibble: 22 × 3
   PIT_NAME          DNS_AVG TOP   
   <chr>               <dbl> <chr> 
 1 "RBSP01         "    102. " 214"
 2 "RBSP01         "    144. " 204"
 3 "RBSP01         "    142. " 194"
 4 "RBSP01         "    160. " 184"
 5 "RBSP01         "    228. " 174"
 6 "RBSP01         "    254. " 164"
 7 "RBSP01         "    284  " 154"
 8 "RBSP01         "    300. " 144"
 9 "RBSP01         "    321  " 134"
10 "RBSP01         "    358. " 124"
# ℹ 12 more rows
…
$`RBSP04         `
# A tibble: 23 × 3
   PIT_NAME          DNS_AVG TOP   
   <chr>               <dbl> <chr> 
 1 "RBSP04         "    83.5 " 224"
 2 "RBSP04         "   176.  " 214"
 3 "RBSP04         "   144   " 204"
 4 "RBSP04         "   156.  " 194"
 5 "RBSP04         "   153   " 184"
 6 "RBSP04         "   201   " 174"
 7 "RBSP04         "   308   " 164"
 8 "RBSP04         "   346   " 154"
 9 "RBSP04         "   324.  " 144"
10 "RBSP04         "   340.  " 134"
# ℹ 13 more rows

$`RBSP05         `
# A tibble: 22 × 3
   PIT_NAME          DNS_AVG TOP   
   <chr>               <dbl> <chr> 
 1 "RBSP05         "     85  " 212"
 2 "RBSP05         "    148  " 202"
 3 "RBSP05         "    156. " 192"
 4 "RBSP05         "    184  " 182"
 5 "RBSP05         "    270  " 172"
 6 "RBSP05         "    298  " 162"
 7 "RBSP05         "    340  " 152"
 8 "RBSP05         "    348  " 142"
 9 "RBSP05         "    346. " 132"
10 "RBSP05         "    352  " 122"
# ℹ 12 more rows
…
$`RBSP10         `
# A tibble: 21 × 3
   PIT_NAME          DNS_AVG TOP   
   <chr>               <dbl> <chr> 
 1 "RBSP10         "    89.5 " 206"
 2 "RBSP10         "   142.  " 196"
 3 "RBSP10         "   144.  " 186"
 4 "RBSP10         "   171   " 176"
 5 "RBSP10         "   225   " 166"
 6 "RBSP10         "   321   " 156"
 7 "RBSP10         "   308.  " 146"
 8 "RBSP10         "   290.  " 136"
 9 "RBSP10         "   348   " 126"
10 "RBSP10         "   366.  " 116"
# ℹ 11 more rows
…
$`RBSP12         `
# A tibble: 22 × 3
   PIT_NAME          DNS_AVG TOP   
   <chr>               <dbl> <chr> 
 1 "RBSP12         "    130. " 219"
 2 "RBSP12         "    140. " 209"
 3 "RBSP12         "    132. " 199"
 4 "RBSP12         "    146. " 189"
 5 "RBSP12         "    202. " 179"
 6 "RBSP12         "    274. " 169"
 7 "RBSP12         "    295  " 159"
 8 "RBSP12         "    318. " 149"
 9 "RBSP12         "    324. " 139"
10 "RBSP12         "    327  " 129"
# ℹ 12 more rows
…
$`RBSP15         `
# A tibble: 24 × 3
   PIT_NAME          DNS_AVG TOP   
   <chr>               <dbl> <chr> 
 1 "RBSP15         "    86.5 " 229"
 2 "RBSP15         "   136   " 219"
 3 "RBSP15         "   130   " 209"
 4 "RBSP15         "   141   " 199"
 5 "RBSP15         "   164   " 189"
 6 "RBSP15         "   228   " 179"
 7 "RBSP15         "   312.  " 169"
 8 "RBSP15         "   322.  " 159"
 9 "RBSP15         "   348.  " 149"
10 "RBSP15         "   372   " 139"
# ℹ 14 more rows
…
#join back to original data 
swe_tables <- swe_tables %>%
  mutate(PIT_NAME = toupper(trimws(PIT_NAME)))

site_tables_clean <- map(site_tables, function(df) {
  df <- df %>%
    mutate(PIT_NAME = toupper(trimws(PIT_NAME))) %>% 
    left_join(swe_tables, by = "PIT_NAME")
  return(df)
})

site_tables_clean

$`RBSP01         `
# A tibble: 22 × 4
   PIT_NAME DNS_AVG TOP      swe
   <chr>      <dbl> <chr>  <dbl>
 1 RBSP01      102. " 214"  805.
 2 RBSP01      144. " 204"  805.
 3 RBSP01      142. " 194"  805.
 4 RBSP01      160. " 184"  805.
 5 RBSP01      228. " 174"  805.
 6 RBSP01      254. " 164"  805.
 7 RBSP01      284  " 154"  805.
 8 RBSP01      300. " 144"  805.
 9 RBSP01      321  " 134"  805.
10 RBSP01      358. " 124"  805.
# ℹ 12 more rows
…
$`RBSP04         `
# A tibble: 23 × 4
   PIT_NAME DNS_AVG TOP      swe
   <chr>      <dbl> <chr>  <dbl>
 1 RBSP04      83.5 " 224"  803.
 2 RBSP04     176.  " 214"  803.
 3 RBSP04     144   " 204"  803.
 4 RBSP04     156.  " 194"  803.
 5 RBSP04     153   " 184"  803.
 6 RBSP04     201   " 174"  803.
 7 RBSP04     308   " 164"  803.
 8 RBSP04     346   " 154"  803.
 9 RBSP04     324.  " 144"  803.
10 RBSP04     340.  " 134"  803.
# ℹ 13 more rows

$`RBSP05         `
# A tibble: 22 × 4
   PIT_NAME DNS_AVG TOP      swe
   <chr>      <dbl> <chr>  <dbl>
 1 RBSP05       85  " 212"  872.
 2 RBSP05      148  " 202"  872.
 3 RBSP05      156. " 192"  872.
 4 RBSP05      184  " 182"  872.
 5 RBSP05      270  " 172"  872.
 6 RBSP05      298  " 162"  872.
 7 RBSP05      340  " 152"  872.
 8 RBSP05      348  " 142"  872.
 9 RBSP05      346. " 132"  872.
10 RBSP05      352  " 122"  872.
# ℹ 12 more rows
…
$`RBSP10         `
# A tibble: 21 × 4
   PIT_NAME DNS_AVG TOP      swe
   <chr>      <dbl> <chr>  <dbl>
 1 RBSP10      89.5 " 206"  852.
 2 RBSP10     142.  " 196"  852.
 3 RBSP10     144.  " 186"  852.
 4 RBSP10     171   " 176"  852.
 5 RBSP10     225   " 166"  852.
 6 RBSP10     321   " 156"  852.
 7 RBSP10     308.  " 146"  852.
 8 RBSP10     290.  " 136"  852.
 9 RBSP10     348   " 126"  852.
10 RBSP10     366.  " 116"  852.
# ℹ 11 more rows
…
$`RBSP12         `
# A tibble: 22 × 4
   PIT_NAME DNS_AVG TOP      swe
   <chr>      <dbl> <chr>  <dbl>
 1 RBSP12      130. " 219"  818.
 2 RBSP12      140. " 209"  818.
 3 RBSP12      132. " 199"  818.
 4 RBSP12      146. " 189"  818.
 5 RBSP12      202. " 179"  818.
 6 RBSP12      274. " 169"  818.
 7 RBSP12      295  " 159"  818.
 8 RBSP12      318. " 149"  818.
 9 RBSP12      324. " 139"  818.
10 RBSP12      327  " 129"  818.
# ℹ 12 more rows
…
$`RBSP15         `
# A tibble: 24 × 4
   PIT_NAME DNS_AVG TOP      swe
   <chr>      <dbl> <chr>  <dbl>
 1 RBSP15      86.5 " 229"  860.
 2 RBSP15     136   " 219"  860.
 3 RBSP15     130   " 209"  860.
 4 RBSP15     141   " 199"  860.
 5 RBSP15     164   " 189"  860.
 6 RBSP15     228   " 179"  860.
 7 RBSP15     312.  " 169"  860.
 8 RBSP15     322.  " 159"  860.
 9 RBSP15     348.  " 149"  860.
10 RBSP15     372   " 139"  860.
# ℹ 14 more rows
…
print(site_tables)

<list_of<
  tbl_df<
    PIT_NAME: character
    DNS_AVG : double
    TOP     : character
  >
>[3]>
$`RBSP05         `
# A tibble: 28 × 3
   PIT_NAME          DNS_AVG TOP   
   <chr>               <dbl> <chr> 
 1 "RBSP05         "    67.5 " 270"
 2 "RBSP05         "    75.5 " 260"
 3 "RBSP05         "    87   " 250"
 4 "RBSP05         "   101   " 240"
 5 "RBSP05         "   111   " 230"
 6 "RBSP05         "   118.  " 220"
 7 "RBSP05         "   140   " 210"
 8 "RBSP05         "   154   " 200"
 9 "RBSP05         "   180.  " 190"
10 "RBSP05         "   219   " 180"
# ℹ 18 more rows

$`RBSP09         `
# A tibble: 26 × 3
   PIT_NAME          DNS_AVG TOP   
   <chr>               <dbl> <chr> 
 1 "RBSP09         "    67   " 252"
 2 "RBSP09         "    91   " 242"
 3 "RBSP09         "    83.5 " 232"
 4 "RBSP09         "   116   " 222"
 5 "RBSP09         "   128   " 212"
 6 "RBSP09         "   144.  " 202"
 7 "RBSP09         "   147   " 192"
 8 "RBSP09         "   182   " 182"
 9 "RBSP09         "   210   " 172"
10 "RBSP09         "   246   " 162"
# ℹ 16 more rows

$`RBSP16         `
# A tibble: 30 × 3
   PIT_NAME          DNS_AVG TOP   
   <chr>               <dbl> <chr> 
 1 "RBSP16         "    67.5 " 288"
 2 "RBSP16         "    77.5 " 278"
 3 "RBSP16         "    91.5 " 268"
 4 "RBSP16         "   104.  " 258"
 5 "RBSP16         "   136.  " 248"
 6 "RBSP16         "   138   " 238"
 7 "RBSP16         "   158.  " 228"
 8 "RBSP16         "   181   " 218"
 9 "RBSP16         "   186.  " 208"
10 "RBSP16         "   218.  " 198"
# ℹ 20 more rows
…
